Introduction to the `panelr` package • panelr
…
The panelr package contributes two categories of
things:

A panel_data object and some tools to create/manipulate
them.

A series of regression modeling functions for panel data.

panel_data frames

Check out the other vignette for a lot of detail on how to take your
raw data and reshape it into a panel_data format. Here’s a
short version, using some example data provided by this package.

## # A tibble: 1,151 × 28
##       id  pov1 mother1 spouse1 inschool1 hours1  pov2 mother2 spouse2 inschool2
##    <dbl> <dbl>   <dbl>   <dbl>     <dbl>  <dbl> <dbl>   <dbl>   <dbl>     <dbl>
##  1    22     1       0       0         1     21     0       0       0         1
##  2    75     0       0       0         1      8     0       0       0         1
##  3    92     0       0       0         1     30     0       0       0         1
##  4    96     0       0       0         0     19     1       1       0         0
##  5   141     0       0       0         1      0     0       0       0         1
##  6   161     0       0       0         1      0     0       0       0         1
##  7   220     0       0       0         1      6     0       0       0         1
##  8   229     0       0       0         1      0     1       0       0         1
##  9   236     0       0       0         1      0     0       0       0         1
## 10   240     0       0       0         1     18     1       0       0         1
## # ℹ 1,141 more rows
## # ℹ 18 more variables: hours2 <dbl>, pov3 <dbl>, mother3 <dbl>, spouse3 <dbl>,
## #   inschool3 <dbl>, hours3 <dbl>, pov4 <dbl>, mother4 <dbl>, spouse4 <dbl>,
## #   inschool4 <dbl>, hours4 <dbl>, age <dbl>, black <dbl>, pov5 <dbl>,
## #   mother5 <dbl>, spouse5 <dbl>, inschool5 <dbl>, hours5 <dbl>
…
